Shell correlation
…
We can see that the errors in z are considerable with a Min. :-29.7800 % and Max. : 0.9800 % for Tpr=1.05, and a Min. :-14.3200 % and Max. : 2.3200 % for Tpr=1.10

Prepare to plot SK chart values vs HY correlation

library(zFactor)
library(tibble)

tpr2 <- c(1.05, 1.1, 1.2, 1.3) 
ppr2 <- c(0.5, 1.0, 1.5, 2, 2.5, 3.0, 3.5, 4.0, 4.5, 5.0, 5.5, 6.0, 6.5) 

sk_corr_2 <- createTidyFromMatrix(ppr2, tpr2, correlation = "SH")
as.tibble(sk_corr_2)

# A tibble: 52 x 5
     Tpr   Ppr z.chart    z.calc           dif
   <chr> <dbl>   <dbl>     <dbl>         <dbl>
 1  1.05   0.5   0.829 0.8326386 -0.0036386379
 2   1.1   0.5   0.854 0.8603678 -0.0063677545
 3   1.2   0.5   0.893 0.8952802 -0.0022801812
 4   1.3   0.5   0.916 0.9183713 -0.0023713210
 5  1.05   1.0   0.589 0.5902581 -0.0012581169
 6   1.1   1.0   0.669 0.6839190 -0.0149190357
 7   1.2   1.0   0.779 0.7797105 -0.0007104794
 8   1.3   1.0   0.835 0.8325494  0.0024506149
 9  1.05   1.5   0.253 0.3283475 -0.0753475126
10   1.1   1.5   0.426 0.4869976 -0.0609975876
# ... with 42 more rows
…
# A tibble: 112 x 5
     Tpr   Ppr z.chart    z.calc           dif
   <chr> <dbl>   <dbl>     <dbl>         <dbl>
 1  1.05   0.5   0.829 0.8326386 -0.0036386379
 2   1.1   0.5   0.854 0.8603678 -0.0063677545
 3   1.2   0.5   0.893 0.8952802 -0.0022801812
 4   1.3   0.5   0.916 0.9183713 -0.0023713210
 5   1.4   0.5   0.936 0.9357838  0.0002162375
 6   1.5   0.5   0.948 0.9497469 -0.0017468881
 7   1.6   0.5   0.959 0.9613216 -0.0023215848
 8   1.7   0.5   0.968 0.9711067 -0.0031066681
 9   1.8   0.5   0.974 0.9794808 -0.0054807773
10   1.9   0.5   0.978 0.9867035 -0.0087035343
# ... with 102 more rows
…
